…
``` r
homicides_dta
```

    ## # A tibble: 39,693 x 5
    ##    city_state     solved victim_age victim_race victim_sex
    ##    <chr>           <dbl>      <dbl> <fct>       <chr>     
    ##  1 Albuquerque_NM      0         15 White       Female    
    ##  2 Albuquerque_NM      0         72 White       Female    
    ##  3 Albuquerque_NM      0         91 White       Female    
    ##  4 Albuquerque_NM      0         56 White       Male      
    ##  5 Albuquerque_NM      0         NA White       Male      
    ##  6 Albuquerque_NM      1         43 White       Female    
    ##  7 Albuquerque_NM      1         52 White       Male      
    ##  8 Albuquerque_NM      1         22 White       Female    
    ##  9 Albuquerque_NM      1         15 Black       Male      
    ## 10 Albuquerque_NM      1         25 Black       Male      
    ## # … with 39,683 more rows
…
homicides_dta$victim_race <- relevel(homicides_dta$victim_race,
                                         ref = "White")
```

``` r
# baltimore df
baltimore_df =
  homicides_dta %>% 
  filter(city_state == "Baltimore_MD")
baltimore_df
```

    ## # A tibble: 2,753 x 5
    ##    city_state   solved victim_age victim_race victim_sex
    ##    <chr>         <dbl>      <dbl> <fct>       <chr>     
    ##  1 Baltimore_MD      0         17 Black       Male      
    ##  2 Baltimore_MD      0         26 Black       Male      
    ##  3 Baltimore_MD      0         21 Black       Male      
    ##  4 Baltimore_MD      1         61 White       Male      
    ##  5 Baltimore_MD      1         46 Black       Male      
    ##  6 Baltimore_MD      1         27 Black       Male      
    ##  7 Baltimore_MD      1         21 Black       Male      
    ##  8 Baltimore_MD      1         16 Black       Male      
    ##  9 Baltimore_MD      1         21 Black       Male      
    ## 10 Baltimore_MD      1         44 Black       Female    
    ## # … with 2,743 more rows
…
models_results_df
```

    ## # A tibble: 188 x 5
    ##    city_state     term                OR lower_ci upper_ci
    ##    <chr>          <chr>            <dbl>    <dbl>    <dbl>
    ##  1 Albuquerque_NM (Intercept)      2.79     1.05     7.36 
    ##  2 Albuquerque_NM victim_age       0.981    0.963    0.998
    ##  3 Albuquerque_NM victim_sexMale   1.77     0.831    3.76 
    ##  4 Albuquerque_NM victim_raceBlack 0.662    0.293    1.50 
    ##  5 Atlanta_GA     (Intercept)      3.12     1.53     6.36 
    ##  6 Atlanta_GA     victim_age       0.988    0.979    0.997
    ##  7 Atlanta_GA     victim_sexMale   1.00     0.684    1.46 
    ##  8 Atlanta_GA     victim_raceBlack 0.764    0.438    1.33 
    ##  9 Baltimore_MD   (Intercept)      3.16     1.99     5.03 
    ## 10 Baltimore_MD   victim_age       0.993    0.987    1.00 
    ## # … with 178 more rows
…
    our_model = map(train, 
                    ~lm(bwt ~ gaweeks + momage + mrace + smoken + bhead + blength, 
                        data = .x)),
    main_effects_model  = map(train, 
                              ~lm(bwt ~ blength + gaweeks, data = .x)),
    threeway_interx_model  = map(train, 
                                 ~lm(bwt ~ bhead*blength*babysex, data = .))) %>% 
  mutate(
    rmse_our_model = map2_dbl(our_model, test, ~rmse(model = .x, data = .y)),
    rmse_main_effects = map2_dbl(main_effects_model, test, ~rmse(model = .x, data = .y)),
    rmse_interx = map2_dbl(threeway_interx_model, test, ~rmse(model = .x, data = .y)))
cv_df
```

    ## # A tibble: 100 x 9
    ##    train test  .id   our_model main_effects_mo… threeway_interx… rmse_our_model
    ##    <lis> <lis> <chr> <list>    <list>           <list>                    <dbl>
    ##  1 <res… <res… 001   <lm>      <lm>             <lm>                       291.
    ##  2 <res… <res… 002   <lm>      <lm>             <lm>                       281.
    ##  3 <res… <res… 003   <lm>      <lm>             <lm>                       274.
    ##  4 <res… <res… 004   <lm>      <lm>             <lm>                       273.
    ##  5 <res… <res… 005   <lm>      <lm>             <lm>                       273.
    ##  6 <res… <res… 006   <lm>      <lm>             <lm>                       280.
    ##  7 <res… <res… 007   <lm>      <lm>             <lm>                       278.
    ##  8 <res… <res… 008   <lm>      <lm>             <lm>                       280.
    ##  9 <res… <res… 009   <lm>      <lm>             <lm>                       283.
    ## 10 <res… <res… 010   <lm>      <lm>             <lm>                       293.
    ## # … with 90 more rows, and 2 more variables: rmse_main_effects <dbl>,
    ## #   rmse_interx <dbl>
…
    ## Registered S3 method overwritten by 'hoardr':
    ##   method           from
    ##   print.cache_info httr

    ## using cached file: /Users/maggieli/Library/Caches/R/noaa_ghcnd/USW00094728.dly

    ## date created (size, mb): 2020-12-09 21:06:37 (7.536)

    ## file min/max dates: 1869-01-01 / 2020-12-31

``` r
weather_df
```

    ## # A tibble: 365 x 6
    ##    name           id          date        prcp  tmax  tmin
    ##    <chr>          <chr>       <date>     <dbl> <dbl> <dbl>
    ##  1 CentralPark_NY USW00094728 2017-01-01     0   8.9   4.4
    ##  2 CentralPark_NY USW00094728 2017-01-02    53   5     2.8
    ##  3 CentralPark_NY USW00094728 2017-01-03   147   6.1   3.9
    ##  4 CentralPark_NY USW00094728 2017-01-04     0  11.1   1.1
    ##  5 CentralPark_NY USW00094728 2017-01-05     0   1.1  -2.7
    ##  6 CentralPark_NY USW00094728 2017-01-06    13   0.6  -3.8
    ##  7 CentralPark_NY USW00094728 2017-01-07    81  -3.2  -6.6
    ##  8 CentralPark_NY USW00094728 2017-01-08     0  -3.8  -8.8
    ##  9 CentralPark_NY USW00094728 2017-01-09     0  -4.9  -9.9
    ## 10 CentralPark_NY USW00094728 2017-01-10     0   7.8  -6  
    ## # … with 355 more rows
…
